%YAML 1.1
%TAG !u! tag:unity3d.com,2011:
--- !u!114 &11400000
MonoBehaviour:
  m_ObjectHideFlags: 0
  m_CorrespondingSourceObject: {fileID: 0}
  m_PrefabInstance: {fileID: 0}
  m_PrefabAsset: {fileID: 0}
  m_GameObject: {fileID: 0}
  m_Enabled: 1
  m_EditorHideFlags: 0
  m_Script: {fileID: 11500000, guid: ae0543fe805424df99fe08ce744cbe49, type: 3}
  m_Name: estudiante pose
  m_EditorClassIdentifier: 
  m_PoseEntries:
  - path: huesos/cadera
    localPosition: {x: 0.8, y: -2.17, z: 0}
    localRotation: {x: 0, y: 0, z: 0.68945324, w: 0.72433025}
    localScale: {x: 1.55, y: 1.3, z: 1}
  - path: huesos/cadera/espalda
    localPosition: {x: 1.0000002, y: 0, z: 0}
    localRotation: {x: 0, y: 0, z: 0.029381562, w: 0.9995683}
    localScale: {x: 1.6, y: 1, z: 1}
  - path: huesos/cadera/espalda/cabeza
    localPosition: {x: 1.0000004, y: -0.0000000554719, z: 0}
    localRotation: {x: 0, y: 0, z: 0.13975513, w: 0.99018615}
    localScale: {x: 1, y: 1, z: 1}
  - path: huesos/cadera/espalda/brazo izq
    localPosition: {x: 0.57, y: 1.15, z: 0}
    localRotation: {x: 0, y: 0, z: 0.98949283, w: 0.14458215}
    localScale: {x: 1, y: 1, z: 1}
  - path: huesos/cadera/espalda/brazo izq/mano izq
    localPosition: {x: 0.82000035, y: 0.00000017881393, z: 0}
    localRotation: {x: 0, y: 0, z: 0.21488848, w: 0.9766386}
    localScale: {x: 1, y: 1, z: 1}
  - path: huesos/cadera/pierna izq
    localPosition: {x: -0.26, y: 0.45639998, z: 0}
    localRotation: {x: 0, y: 0, z: 0.9994299, w: 0.033763263}
    localScale: {x: 1, y: 1, z: 1}
  - path: huesos/cadera/pierna izq/rodila izq
    localPosition: {x: 1.3900012, y: 0, z: 0}
    localRotation: {x: 0, y: 0, z: 0, w: 1}
    localScale: {x: 1, y: 1, z: 1}
  - path: huesos/cadera/pierna izq/rodila izq/pie izq
    localPosition: {x: 1, y: -0.06, z: 0}
    localRotation: {x: 0, y: 0, z: -0.35378617, w: -0.93532634}
    localScale: {x: 1, y: 1, z: 1}
  - path: huesos/cadera/pierna der
    localPosition: {x: -0.18, y: -0.46, z: 0}
    localRotation: {x: 0, y: 0, z: -0.99405783, w: 0.10885355}
    localScale: {x: 1, y: 1, z: 1}
  - path: huesos/cadera/pierna der/rodilla der
    localPosition: {x: 1.3600006, y: -0.000000059604645, z: 0}
    localRotation: {x: 0, y: 0, z: -0.11033765, w: 0.99389416}
    localScale: {x: 1, y: 1, z: 1}
  - path: huesos/cadera/pierna der/rodilla der/pie der
    localPosition: {x: 1.1600007, y: 0.000000074505806, z: 0}
    localRotation: {x: 0, y: 0, z: 0.6266338, w: 0.7793139}
    localScale: {x: 1, y: 1, z: 1}
