%YAML 1.1
%TAG !u! tag:unity3d.com,2011:
--- !u!114 &11400000
MonoBehaviour:
  m_ObjectHideFlags: 0
  m_CorrespondingSourceObject: {fileID: 0}
  m_PrefabInstance: {fileID: 0}
  m_PrefabAsset: {fileID: 0}
  m_GameObject: {fileID: 0}
  m_Enabled: 1
  m_EditorHideFlags: 0
  m_Script: {fileID: 11500000, guid: dda926ee7b75a0d46a19b2915760b70f, type: 3}
  m_Name: Adam_Jason-Fututo_Interior
  m_EditorClassIdentifier: 
  name: Adam-Jason
  firstInteraction:
    namePJs:
    - Jason
    - Lucy
    - Jason
    - Lucy
    - Adam
    - Lucy
    - Jason
    - Lucy
    - Adam
    spritePJs:
    - {fileID: -1873729036096290114, guid: c47ab3f2aeb58994ca59f40978f7ce33, type: 3}
    - {fileID: 1699016053773238273, guid: aa035c2c1bd35434c85c66e3a4641a77, type: 3}
    - {fileID: -1873729036096290114, guid: c47ab3f2aeb58994ca59f40978f7ce33, type: 3}
    - {fileID: 1699016053773238273, guid: aa035c2c1bd35434c85c66e3a4641a77, type: 3}
    - {fileID: 1967275761276558505, guid: a998fa969da0d1b47bb66fb0a9cb3c84, type: 3}
    - {fileID: 1699016053773238273, guid: aa035c2c1bd35434c85c66e3a4641a77, type: 3}
    - {fileID: -1873729036096290114, guid: c47ab3f2aeb58994ca59f40978f7ce33, type: 3}
    - {fileID: 1699016053773238273, guid: aa035c2c1bd35434c85c66e3a4641a77, type: 3}
    - {fileID: 1967275761276558505, guid: a998fa969da0d1b47bb66fb0a9cb3c84, type: 3}
    senteces:
    - "Bienvenidos Equipo 8. Gracias a las investigaciones de Adam,\r hemos descubierto
      c\xF3mo podr\xEDamos evitar la cat\xE1strofe mundial.\r Se os ha asignado la
      tarea de limpiar las aguas del a\xF1o 20xx\r de residuos s\xF3lidos.\r"
    - "Pero, \xBFqu\xE9 debemos hacer? \xBFC\xF3mo les ha ido al resto de \requipos?\r"
    - "C\xF3mo Adam es el \xFAnico que ha conseguido volver con vida de un  \rviaje
      temporal, los dem\xE1s equipos no tienen experiencia en \restos viajes. Deb\xE9is
      ser los primeros. As\xED el resto de equipos\r podr\xE1n seguir vuestro ejemplo.\r"
    - "Esto es muy peligroso, tengo miedo.\r"
    - "No tengas miedo, yo estar\xE9 a tu lado."
    - "Me reconforta oir eso. \xBFPero, a qu\xE9 \xE9poca nos tenemos que\r dirigir?\r"
    - "Seg\xFAn nuestras investigaciones y los datos que nos ha \rproporcionado Adam,
      la cat\xE1strofe se vuelve irreversible\r unos meses antes del d\xEDa C. Deber\xE9is
      empezar por ah\xED.\r"
    - "\xBFY a d\xF3nde nos dirigimos?"
    - "Encontr\xE9 estos trozos de papel en mi primer viaje. En ellos se puede apreciar
      lo que parecen n\xFAmeros, quizas nos ayude."
  secondInteraction:
    namePJs:
    - Adam
    - Jason
    spritePJs:
    - {fileID: 1967275761276558505, guid: a998fa969da0d1b47bb66fb0a9cb3c84, type: 3}
    - {fileID: -1873729036096290114, guid: c47ab3f2aeb58994ca59f40978f7ce33, type: 3}
    senteces:
    - He dejado los trozos de papel encima de la mesa
    - "\xBFA que fecha cre\xE9is que nos llevar\xE1?"
  itemWrong:
    namePJs: []
    spritePJs: []
    senteces: []
  itemCorrect:
    namePJs: []
    spritePJs: []
    senteces: []
  puzzle1Completed:
    namePJs:
    - Jason
    - Adam
    - Jason
    - Lucy
    - Jason
    spritePJs:
    - {fileID: -1873729036096290114, guid: c47ab3f2aeb58994ca59f40978f7ce33, type: 3}
    - {fileID: 1967275761276558505, guid: a998fa969da0d1b47bb66fb0a9cb3c84, type: 3}
    - {fileID: -1873729036096290114, guid: c47ab3f2aeb58994ca59f40978f7ce33, type: 3}
    - {fileID: 1699016053773238273, guid: aa035c2c1bd35434c85c66e3a4641a77, type: 3}
    - {fileID: -1873729036096290114, guid: c47ab3f2aeb58994ca59f40978f7ce33, type: 3}
    senteces:
    - "Gracias a este papel hemos conseguido una fecha exacta a la que mandaros.
      Vuestra localizaci\xF3n asignada es Londres, capital de un pa\xEDs antiguo."
    - "\xBFPartimos ya?"
    - "A\xFAn no, el combustible de la m\xE1quina del tiempo todav\xEDa falta por
      hacer."
    - "Me encargo ya, \xBFd\xF3nde estan los materiales?"
    - "Los materiales est\xE1n en el armario y para hacer la mezcla puedes usar la
      m\xE1quina de la otra mesa."
  puzzle1CompletedSecondInteraction:
    namePJs:
    - Jason
    spritePJs:
    - {fileID: -1873729036096290114, guid: c47ab3f2aeb58994ca59f40978f7ce33, type: 3}
    senteces:
    - "Los materiales necesarios para el combustible los encontraras en el armario
      y para hacer la mezcla tienes la m\xE1quina de la otra mesa."
  puzzle2Completed:
    namePJs:
    - Jason
    spritePJs:
    - {fileID: -1873729036096290114, guid: c47ab3f2aeb58994ca59f40978f7ce33, type: 3}
    senteces:
    - "Pues con una fecha a la que ir y el combustible listo ya solo queda que partais.
      Dirig\xEDos a la maquina del tiempo. Suerte y recordad que la humanidad depende
      de vosotros."
