%YAML 1.1
%TAG !u! tag:unity3d.com,2011:
--- !u!114 &11400000
MonoBehaviour:
  m_ObjectHideFlags: 0
  m_CorrespondingSourceObject: {fileID: 0}
  m_PrefabInstance: {fileID: 0}
  m_PrefabAsset: {fileID: 0}
  m_GameObject: {fileID: 0}
  m_Enabled: 1
  m_EditorHideFlags: 0
  m_Script: {fileID: 11500000, guid: dda926ee7b75a0d46a19b2915760b70f, type: 3}
  m_Name: Estudiante-Presente_Calle
  m_EditorClassIdentifier: 
  name: Estudiante
  firstInteraction:
    namePJs:
    - Lucy
    - Estudiante
    - Adam
    - Estudiante
    - Lucy
    - Adam
    - Lucy
    spritePJs:
    - {fileID: 1699016053773238273, guid: aa035c2c1bd35434c85c66e3a4641a77, type: 3}
    - {fileID: -5137584228694310271, guid: 606020a2897bbe84b806168ad31c5f05, type: 3}
    - {fileID: 1967275761276558505, guid: a998fa969da0d1b47bb66fb0a9cb3c84, type: 3}
    - {fileID: 21300000, guid: 5e3bc7a383e746947aea84ade97151e8, type: 3}
    - {fileID: 1699016053773238273, guid: aa035c2c1bd35434c85c66e3a4641a77, type: 3}
    - {fileID: 1967275761276558505, guid: a998fa969da0d1b47bb66fb0a9cb3c84, type: 3}
    - {fileID: 1699016053773238273, guid: aa035c2c1bd35434c85c66e3a4641a77, type: 3}
    senteces:
    - "Hola. Estamos buscando como llegar a la playa o cualquier zona de mar. \xBFNos
      podr\xEDas guiar?\r"
    - "Soy nuevo en la ciudad, asi que no sabr\xEDa deciros."
    - "\xBFSabrias indicarnos al menos un lugar donde obtener indicaciones?"
    - "Por aqu\xED cerca est\xE1 la universidad, alli seguramente alguien pueda daros
      indicaciones. Os puedo apuntar como llegar hasta all\xED."
    - "Nos servira. \xA1Muchas gracias!\r"
    - "\xA1Gracias!"
    - "No tenemos m\xE1s pistas, espero que en la universidad consigamos informaci\xF3n
      \xFAtil."
  secondInteraction:
    namePJs:
    - Estudiante
    spritePJs:
    - {fileID: 21300000, guid: 5e3bc7a383e746947aea84ade97151e8, type: 3}
    senteces:
    - Espero que os sirvan las indicaciones que os he dado.
  itemWrong:
    namePJs: []
    spritePJs: []
    senteces: []
  itemCorrect:
    namePJs: []
    spritePJs: []
    senteces: []
  puzzle1Completed:
    namePJs: []
    spritePJs: []
    senteces: []
  puzzle1CompletedSecondInteraction:
    namePJs: []
    spritePJs: []
    senteces: []
  puzzle2Completed:
    namePJs: []
    spritePJs: []
    senteces: []
