%YAML 1.1
%TAG !u! tag:unity3d.com,2011:
--- !u!114 &11400000
MonoBehaviour:
  m_ObjectHideFlags: 0
  m_CorrespondingSourceObject: {fileID: 0}
  m_PrefabInstance: {fileID: 0}
  m_PrefabAsset: {fileID: 0}
  m_GameObject: {fileID: 0}
  m_Enabled: 1
  m_EditorHideFlags: 0
  m_Script: {fileID: 11500000, guid: dda926ee7b75a0d46a19b2915760b70f, type: 3}
  m_Name: Jason_ultima-Futuro_Interior
  m_EditorClassIdentifier: 
  name: Jason
  firstInteraction:
    namePJs:
    - Jason
    spritePJs:
    - {fileID: -1873729036096290114, guid: c47ab3f2aeb58994ca59f40978f7ce33, type: 3}
    senteces:
    - "Pues con una fecha a la que ir y el combustible listo ya solo queda que partais.
      Dirig\xEDos a la maquina del tiempo. Suerte y recordad que la humanidad depende
      de vosotros."
  secondInteraction:
    namePJs:
    - Jason
    spritePJs:
    - {fileID: -1873729036096290114, guid: c47ab3f2aeb58994ca59f40978f7ce33, type: 3}
    senteces:
    - "Pues con una fecha a la que ir y el combustible listo ya solo queda que partais.
      Dirig\xEDos a la maquina del tiempo. Suerte y recordad que la humanidad depende
      de vosotros."
  itemWrong:
    namePJs: []
    spritePJs: []
    senteces: []
  itemCorrect:
    namePJs: []
    spritePJs: []
    senteces: []
  puzzle1Completed:
    namePJs: []
    spritePJs: []
    senteces: []
  puzzle1CompletedSecondInteraction:
    namePJs: []
    spritePJs: []
    senteces: []
  puzzle2Completed:
    namePJs: []
    spritePJs: []
    senteces: []
